{"count":142,"next":"https://api.edfgb-kraken.energy/v1/products/EDF_FREEPHASE_DYNAMIC_12M_HH/electricity-tariffs/E-1R-EDF_FREEPHASE_DYNAMIC_12M_HH-E/standard-unit-rates/?page=2&period_from=2025-12-13T00%3A00%3A00Z&period_to=2025-12-16T23%3A59%3A59Z","previous":null,"results":[{"value_exc_vat":16.142,"value_inc_vat":16.9491,"valid_from":"2025-12-15T22:30:00Z","valid_to":"2025-12-15T23:00:00Z","payment_method":"DIRECT_DEBIT"},{"value_exc_vat":16.142,"value_inc_vat":16.9491,"valid_from":"2025-12-15T22:00:00Z","valid_to":"2025-12-15T22:30:00Z","payment_method":"DIRECT_DEBIT"},{"value_exc_vat":16.142,"value_inc_vat":16.9491,"valid_from":"2025-12-15T21:30:00Z","valid_to":"2025-12-15T22:00:00Z","payment_method":"DIRECT_DEBIT"},{"value_exc_vat":16.142,"value_inc_vat":16.9491,"valid_from":"2025-12-15T21:00:00Z","valid_to":"2025-12-15T21:30:00Z","payment_method":"DIRECT_DEBIT"},{"value_exc_vat":16.142,"value_inc_vat":16.9491,"valid_from":"2025-12-15T20:30:00Z","valid_to":"2025-12-15T21:00:00Z","payment_method":"DIRECT_DEBIT"},{"value_exc_vat":16.142,"value_inc_vat":16.9491,"valid_from":"2025-12-15T20:00:00Z","valid_to":"2025-12-15T20:30:00Z","payment_method":"DIRECT_DEBIT"},{"value_exc_vat":16.142,"value_inc_vat":16.9491,"valid_from":"2025-12-15T19:30:00Z","valid_to":"2025-12-15T20:00:00Z","payment_method":"DIRECT_DEBIT"},{"value_exc_vat":16.142,"value_inc_vat":16.9491,"valid_from":"2025-12-15T19:00:00Z","valid_to":"2025-12-15T19:30:00Z","payment_method":"DIRECT_DEBIT"},{"value_exc_vat":25.835,"value_inc_vat":27.12675,"valid_from":"2025-12-15T18:30:00Z","valid_to":"2025-12-15T19:00:00Z","payment_method":"DIRECT_DEBIT"},{"value_exc_vat":25.835,"value_inc_vat":27.12675,"valid_from":"2025-12-15T18:00:00Z","valid_to":"2025-12-15T18:30:00Z","payment_method":"DIRECT_DEBIT"},{"value_exc_vat":25.835,"value_inc_vat":27.12675,"valid_from":"2025-12-15T17:30:00Z","valid_to":"2025-12-15T18:00:00Z","payment_method":"DIRECT_DEBIT"},{"value_exc_vat":25.835,"value_inc_vat":27.12675,"valid_from":"2025-12-15T17:00:00Z","valid_to":"2025-12-15T17:30:00Z","payment_method":"DIRECT_DEBIT"},{"value_exc_vat":25.835,"value_inc_vat":27.12675,"valid_from":"2025-12-15T16:30:00Z","valid_to":"2025-12-15T17:00:00Z","payment_method":"DIRECT_DEBIT"},{"value_exc_vat":25.835,"value_inc_vat":27.12675,"valid_from":"2025-12-15T16:00:00Z","valid_to":"2025-12-15T16:30:00Z","payment_method":"DIRECT_DEBIT"},{"value_exc_vat":16.142,"value_inc_vat":16.9491,"valid_from":"2025-12-15T15:30:00Z","valid_to":"2025-12-15T16:00:00Z","payment_method":"DIRECT_DEBIT"},{"value_exc_vat":16.142,"value_inc_vat":16.9491,"valid_from":"2025-12-15T15:00:00Z","valid_to":"2025-12-15T15:30:00Z","payment_method":"DIRECT_DEBIT"},{"value_exc_vat":16.142,"value_inc_vat":16.9491,"valid_from":"2025-12-15T14:30:00Z","valid_to":"2025-12-15T15:00:00Z","payment_method":"DIRECT_DEBIT"},{"value_exc_vat":16.142,"value_inc_vat":16.9491,"valid_from":"2025-12-15T14:00:00Z","valid_to":"2025-12-15T14:30:00Z","payment_method":"DIRECT_DEBIT"},{"value_exc_vat":16.142,"value_inc_vat":16.9491,"valid_from":"2025-12-15T13:30:00Z","valid_to":"2025-12-15T14:00:00Z","payment_method":"DIRECT_DEBIT"},{"value_exc_vat":16.142,"value_inc_vat":16.9491,"valid_from":"2025-12-15T13:00:00Z","valid_to":"2025-12-15T13:30:00Z","payment_method":"DIRECT_DEBIT"},{"value_exc_vat":16.142,"value_inc_vat":16.9491,"valid_from":"2025-12-15T12:30:00Z","valid_to":"2025-12-15T13:00:00Z","payment_method":"DIRECT_DEBIT"},{"value_exc_vat":16.142,"value_inc_vat":16.9491,"valid_from":"2025-12-15T12:00:00Z","valid_to":"2025-12-15T12:30:00Z","payment_method":"DIRECT_DEBIT"},{"value_exc_vat":16.142,"value_inc_vat":16.9491,"valid_from":"2025-12-15T11:30:00Z","valid_to":"2025-12-15T12:00:00Z","payment_method":"DIRECT_DEBIT"},{"value_exc_vat":16.142,"value_inc_vat":16.9491,"valid_from":"2025-12-15T11:00:00Z","valid_to":"2025-12-15T11:30:00Z","payment_method":"DIRECT_DEBIT"},{"value_exc_vat":16.142,"value_inc_vat":16.9491,"valid_from":"2025-12-15T10:30:00Z","valid_to":"2025-12-15T11:00:00Z","payment_method":"DIRECT_DEBIT"},{"value_exc_vat":16.142,"value_inc_vat":16.9491,"valid_from":"2025-12-15T10:00:00Z","valid_to":"2025-12-15T10:30:00Z","payment_method":"DIRECT_DEBIT"},{"value_exc_vat":16.142,"value_inc_vat":16.9491,"valid_from":"2025-12-15T09:30:00Z","valid_to":"2025-12-15T10:00:00Z","payment_method":"DIRECT_DEBIT"},{"value_exc_vat":16.142,"value_inc_vat":16.9491,"valid_from":"2025-12-15T09:00:00Z","valid_to":"2025-12-15T09:30:00Z","payment_method":"DIRECT_DEBIT"},{"value_exc_vat":16.142,"value_inc_vat":16.9491,"valid_from":"2025-12-15T08:30:00Z","valid_to":"2025-12-15T09:00:00Z","payment_method":"DIRECT_DEBIT"},{"value_exc_vat":16.142,"value_inc_vat":16.9491,"valid_from":"2025-12-15T08:00:00Z","valid_to":"2025-12-15T08:30:00Z","payment_method":"DIRECT_DEBIT"},{"value_exc_vat":16.142,"value_inc_vat":16.9491,"valid_from":"2025-12-15T07:30:00Z","valid_to":"2025-12-15T08:00:00Z","payment_method":"DIRECT_DEBIT"},{"value_exc_vat":16.142,"value_inc_vat":16.9491,"valid_from":"2025-12-15T07:00:00Z","valid_to":"2025-12-15T07:30:00Z","payment_method":"DIRECT_DEBIT"},{"value_exc_vat":16.142,"value_inc_vat":16.9491,"valid_from":"2025-12-15T06:30:00Z","valid_to":"2025-12-15T07:00:00Z","payment_method":"DIRECT_DEBIT"},{"value_exc_vat":16.142,"value_inc_vat":16.9491,"valid_from":"2025-12-15T06:00:00Z","valid_to":"2025-12-15T06:30:00Z","payment_method":"DIRECT_DEBIT"},{"value_exc_vat":11.98,"value_inc_vat":12.579,"valid_from":"2025-12-15T05:30:00Z","valid_to":"2025-12-15T06:00:00Z","payment_method":"DIRECT_DEBIT"},{"value_exc_vat":11.98,"value_inc_vat":12.579,"valid_from":"2025-12-15T05:00:00Z","valid_to":"2025-12-15T05:30:00Z","payment_method":"DIRECT_DEBIT"},{"value_exc_vat":11.98,"value_inc_vat":12.579,"valid_from":"2025-12-15T04:30:00Z","valid_to":"2025-12-15T05:00:00Z","payment_method":"DIRECT_DEBIT"},{"value_exc_vat":11.98,"value_inc_vat":12.579,"valid_from":"2025-12-15T04:00:00Z","valid_to":"2025-12-15T04:30:00Z","payment_method":"DIRECT_DEBIT"},{"value_exc_vat":11.98,"value_inc_vat":12.579,"valid_from":"2025-12-15T03:30:00Z","valid_to":"2025-12-15T04:00:00Z","payment_method":"DIRECT_DEBIT"},{"value_exc_vat":11.98,"value_inc_vat":12.579,"valid_from":"2025-12-15T03:00:00Z","valid_to":"2025-12-15T03:30:00Z","payment_method":"DIRECT_DEBIT"},{"value_exc_vat":11.98,"value_inc_vat":12.579,"valid_from":"2025-12-15T02:30:00Z","valid_to":"2025-12-15T03:00:00Z","payment_method":"DIRECT_DEBIT"},{"value_exc_vat":11.98,"value_inc_vat":12.579,"valid_from":"2025-12-15T02:00:00Z","valid_to":"2025-12-15T02:30:00Z","payment_method":"DIRECT_DEBIT"},{"value_exc_vat":11.98,"value_inc_vat":12.579,"valid_from":"2025-12-15T01:30:00Z","valid_to":"2025-12-15T02:00:00Z","payment_method":"DIRECT_DEBIT"},{"value_exc_vat":11.98,"value_inc_vat":12.579,"valid_from":"2025-12-15T01:00:00Z","valid_to":"2025-12-15T01:30:00Z","payment_method":"DIRECT_DEBIT"},{"value_exc_vat":11.98,"value_inc_vat":12.579,"valid_from":"2025-12-15T00:30:00Z","valid_to":"2025-12-15T01:00:00Z","payment_method":"DIRECT_DEBIT"},{"value_exc_vat":11.98,"value_inc_vat":12.579,"valid_from":"2025-12-15T00:00:00Z","valid_to":"2025-12-15T00:30:00Z","payment_method":"DIRECT_DEBIT"},{"value_exc_vat":11.98,"value_inc_vat":12.579,"valid_from":"2025-12-14T23:30:00Z","valid_to":"2025-12-15T00:00:00Z","payment_method":"DIRECT_DEBIT"},{"value_exc_vat":11.98,"value_inc_vat":12.579,"valid_from":"2025-12-14T23:00:00Z","valid_to":"2025-12-14T23:30:00Z","payment_method":"DIRECT_DEBIT"},{"value_exc_vat":12.557,"value_inc_vat":13.18485,"valid_from":"2025-12-14T22:30:00Z","valid_to":"2025-12-14T23:00:00Z","payment_method":"DIRECT_DEBIT"},{"value_exc_vat":12.557,"value_inc_vat":13.18485,"valid_from":"2025-12-14T22:00:00Z","valid_to":"2025-12-14T22:30:00Z","payment_method":"DIRECT_DEBIT"},{"value_exc_vat":12.557,"value_inc_vat":13.18485,"valid_from":"2025-12-14T21:30:00Z","valid_to":"2025-12-14T22:00:00Z","payment_method":"DIRECT_DEBIT"},{"value_exc_vat":12.557,"value_inc_vat":13.18485,"valid_from":"2025-12-14T21:00:00Z","valid_to":"2025-12-14T21:30:00Z","payment_method":"DIRECT_DEBIT"},{"value_exc_vat":12.557,"value_inc_vat":13.18485,"valid_from":"2025-12-14T20:30:00Z","valid_to":"2025-12-14T21:00:00Z","payment_method":"DIRECT_DEBIT"},{"value_exc_vat":12.557,"value_inc_vat":13.18485,"valid_from":"2025-12-14T20:00:00Z","valid_to":"2025-12-14T20:30:00Z","payment_method":"DIRECT_DEBIT"},{"value_exc_vat":12.557,"value_inc_vat":13.18485,"valid_from":"2025-12-14T19:30:00Z","valid_to":"2025-12-14T20:00:00Z","payment_method":"DIRECT_DEBIT"},{"value_exc_vat":12.557,"value_inc_vat":13.18485,"valid_from":"2025-12-14T19:00:00Z","valid_to":"2025-12-14T19:30:00Z","payment_method":"DIRECT_DEBIT"},{"value_exc_vat":23.89,"value_inc_vat":25.0845,"valid_from":"2025-12-14T18:30:00Z","valid_to":"2025-12-14T19:00:00Z","payment_method":"DIRECT_DEBIT"},{"value_exc_vat":23.89,"value_inc_vat":25.0845,"valid_from":"2025-12-14T18:00:00Z","valid_to":"2025-12-14T18:30:00Z","payment_method":"DIRECT_DEBIT"},{"value_exc_vat":23.89,"value_inc_vat":25.0845,"valid_from":"2025-12-14T17:30:00Z","valid_to":"2025-12-14T18:00:00Z","payment_method":"DIRECT_DEBIT"},{"value_exc_vat":23.89,"value_inc_vat":25.0845,"valid_from":"2025-12-14T17:00:00Z","valid_to":"2025-12-14T17:30:00Z","payment_method":"DIRECT_DEBIT"},{"value_exc_vat":23.89,"value_inc_vat":25.0845,"valid_from":"2025-12-14T16:30:00Z","valid_to":"2025-12-14T17:00:00Z","payment_method":"DIRECT_DEBIT"},{"value_exc_vat":23.89,"value_inc_vat":25.0845,"valid_from":"2025-12-14T16:00:00Z","valid_to":"2025-12-14T16:30:00Z","payment_method":"DIRECT_DEBIT"},{"value_exc_vat":12.557,"value_inc_vat":13.18485,"valid_from":"2025-12-14T15:30:00Z","valid_to":"2025-12-14T16:00:00Z","payment_method":"DIRECT_DEBIT"},{"value_exc_vat":12.557,"value_inc_vat":13.18485,"valid_from":"2025-12-14T15:00:00Z","valid_to":"2025-12-14T15:30:00Z","payment_method":"DIRECT_DEBIT"},{"value_exc_vat":12.557,"value_inc_vat":13.18485,"valid_from":"2025-12-14T14:30:00Z","valid_to":"2025-12-14T15:00:00Z","payment_method":"DIRECT_DEBIT"},{"value_exc_vat":12.557,"value_inc_vat":13.18485,"valid_from":"2025-12-14T14:00:00Z","valid_to":"2025-12-14T14:30:00Z","payment_method":"DIRECT_DEBIT"},{"value_exc_vat":12.557,"value_inc_vat":13.18485,"valid_from":"2025-12-14T13:30:00Z","valid_to":"2025-12-14T14:00:00Z","payment_method":"DIRECT_DEBIT"},{"value_exc_vat":12.557,"value_inc_vat":13.18485,"valid_from":"2025-12-14T13:00:00Z","valid_to":"2025-12-14T13:30:00Z","payment_method":"DIRECT_DEBIT"},{"value_exc_vat":12.557,"value_inc_vat":13.18485,"valid_from":"2025-12-14T12:30:00Z","valid_to":"2025-12-14T13:00:00Z","payment_method":"DIRECT_DEBIT"},{"value_exc_vat":12.557,"value_inc_vat":13.18485,"valid_from":"2025-12-14T12:00:00Z","valid_to":"2025-12-14T12:30:00Z","payment_method":"DIRECT_DEBIT"},{"value_exc_vat":12.557,"value_inc_vat":13.18485,"valid_from":"2025-12-14T11:30:00Z","valid_to":"2025-12-14T12:00:00Z","payment_method":"DIRECT_DEBIT"},{"value_exc_vat":12.557,"value_inc_vat":13.18485,"valid_from":"2025-12-14T11:00:00Z","valid_to":"2025-12-14T11:30:00Z","payment_method":"DIRECT_DEBIT"},{"value_exc_vat":12.557,"value_inc_vat":13.18485,"valid_from":"2025-12-14T10:30:00Z","valid_to":"2025-12-14T11:00:00Z","payment_method":"DIRECT_DEBIT"},{"value_exc_vat":12.557,"value_inc_vat":13.18485,"valid_from":"2025-12-14T10:00:00Z","valid_to":"2025-12-14T10:30:00Z","payment_method":"DIRECT_DEBIT"},{"value_exc_vat":12.557,"value_inc_vat":13.18485,"valid_from":"2025-12-14T09:30:00Z","valid_to":"2025-12-14T10:00:00Z","payment_method":"DIRECT_DEBIT"},{"value_exc_vat":12.557,"value_inc_vat":13.18485,"valid_from":"2025-12-14T09:00:00Z","valid_to":"2025-12-14T09:30:00Z","payment_method":"DIRECT_DEBIT"},{"value_exc_vat":12.557,"value_inc_vat":13.18485,"valid_from":"2025-12-14T08:30:00Z","valid_to":"2025-12-14T09:00:00Z","payment_method":"DIRECT_DEBIT"},{"value_exc_vat":12.557,"value_inc_vat":13.18485,"valid_from":"2025-12-14T08:00:00Z","valid_to":"2025-12-14T08:30:00Z","payment_method":"DIRECT_DEBIT"},{"value_exc_vat":12.557,"value_inc_vat":13.18485,"valid_from":"2025-12-14T07:30:00Z","valid_to":"2025-12-14T08:00:00Z","payment_method":"DIRECT_DEBIT"},{"value_exc_vat":12.557,"value_inc_vat":13.18485,"valid_from":"2025-12-14T07:00:00Z","valid_to":"2025-12-14T07:30:00Z","payment_method":"DIRECT_DEBIT"},{"value_exc_vat":12.557,"value_inc_vat":13.18485,"valid_from":"2025-12-14T06:30:00Z","valid_to":"2025-12-14T07:00:00Z","payment_method":"DIRECT_DEBIT"},{"value_exc_vat":12.557,"value_inc_vat":13.18485,"valid_from":"2025-12-14T06:00:00Z","valid_to":"2025-12-14T06:30:00Z","payment_method":"DIRECT_DEBIT"},{"value_exc_vat":9.056,"value_inc_vat":9.5088,"valid_from":"2025-12-14T05:30:00Z","valid_to":"2025-12-14T06:00:00Z","payment_method":"DIRECT_DEBIT"},{"value_exc_vat":9.056,"value_inc_vat":9.5088,"valid_from":"2025-12-14T05:00:00Z","valid_to":"2025-12-14T05:30:00Z","payment_method":"DIRECT_DEBIT"},{"value_exc_vat":9.056,"value_inc_vat":9.5088,"valid_from":"2025-12-14T04:30:00Z","valid_to":"2025-12-14T05:00:00Z","payment_method":"DIRECT_DEBIT"},{"value_exc_vat":9.056,"value_inc_vat":9.5088,"valid_from":"2025-12-14T04:00:00Z","valid_to":"2025-12-14T04:30:00Z","payment_method":"DIRECT_DEBIT"},{"value_exc_vat":9.056,"value_inc_vat":9.5088,"valid_from":"2025-12-14T03:30:00Z","valid_to":"2025-12-14T04:00:00Z","payment_method":"DIRECT_DEBIT"},{"value_exc_vat":9.056,"value_inc_vat":9.5088,"valid_from":"2025-12-14T03:00:00Z","valid_to":"2025-12-14T03:30:00Z","payment_method":"DIRECT_DEBIT"},{"value_exc_vat":9.056,"value_inc_vat":9.5088,"valid_from":"2025-12-14T02:30:00Z","valid_to":"2025-12-14T03:00:00Z","payment_method":"DIRECT_DEBIT"},{"value_exc_vat":9.056,"value_inc_vat":9.5088,"valid_from":"2025-12-14T02:00:00Z","valid_to":"2025-12-14T02:30:00Z","payment_method":"DIRECT_DEBIT"},{"value_exc_vat":9.056,"value_inc_vat":9.5088,"valid_from":"2025-12-14T01:30:00Z","valid_to":"2025-12-14T02:00:00Z","payment_method":"DIRECT_DEBIT"},{"value_exc_vat":9.056,"value_inc_vat":9.5088,"valid_from":"2025-12-14T01:00:00Z","valid_to":"2025-12-14T01:30:00Z","payment_method":"DIRECT_DEBIT"},{"value_exc_vat":9.056,"value_inc_vat":9.5088,"valid_from":"2025-12-14T00:30:00Z","valid_to":"2025-12-14T01:00:00Z","payment_method":"DIRECT_DEBIT"},{"value_exc_vat":9.056,"value_inc_vat":9.5088,"valid_from":"2025-12-14T00:00:00Z","valid_to":"2025-12-14T00:30:00Z","payment_method":"DIRECT_DEBIT"},{"value_exc_vat":9.056,"value_inc_vat":9.5088,"valid_from":"2025-12-13T23:30:00Z","valid_to":"2025-12-14T00:00:00Z","payment_method":"DIRECT_DEBIT"},{"value_exc_vat":9.056,"value_inc_vat":9.5088,"valid_from":"2025-12-13T23:00:00Z","valid_to":"2025-12-13T23:30:00Z","payment_method":"DIRECT_DEBIT"},{"value_exc_vat":14.872,"value_inc_vat":15.6156,"valid_from":"2025-12-13T22:30:00Z","valid_to":"2025-12-13T23:00:00Z","payment_method":"DIRECT_DEBIT"},{"value_exc_vat":14.872,"value_inc_vat":15.6156,"valid_from":"2025-12-13T22:00:00Z","valid_to":"2025-12-13T22:30:00Z","payment_method":"DIRECT_DEBIT"},{"value_exc_vat":14.872,"value_inc_vat":15.6156,"valid_from":"2025-12-13T21:30:00Z","valid_to":"2025-12-13T22:00:00Z","payment_method":"DIRECT_DEBIT"},{"value_exc_vat":14.872,"value_inc_vat":15.6156,"valid_from":"2025-12-13T21:00:00Z","valid_to":"2025-12-13T21:30:00Z","payment_method":"DIRECT_DEBIT"}]}